[INFO ] [2021-11-19 18:22:02,944] Driver at Abstract Test = ChromeDriver: chrome on WINDOWS (fdff2b4accbe62deec129476ec6c3486)
[INFO ] [2021-11-19 18:22:07,351] TC_01_Register with empty Data
[INFO ] [2021-11-19 18:22:07,355] Open The Register page
[INFO ] [2021-11-19 18:22:10,087] Dont Input Any Field
[INFO ] [2021-11-19 18:22:14,193] Verify Message Displayed error
[INFO ] [2021-11-19 18:22:14,236]  -------------------------- PASSED -------------------------- 
[INFO ] [2021-11-19 18:22:14,237] Display message true but verify False
[INFO ] [2021-11-19 18:22:14,277]  -------------------------- FAILED -------------------------- 
[INFO ] [2021-11-19 18:22:14,278] Display message true but verify False
[INFO ] [2021-11-19 18:22:14,284] OS name = windows 10
[INFO ] [2021-11-19 18:22:14,920] ---------- QUIT BROWSER SUCCESS ----------
